…
table1 
#> # A tibble: 6 × 4
#>   country      year  cases population
#>   <chr>       <int>  <int>      <int>
#> 1 Afghanistan  1999    745   19987071
#> 2 Afghanistan  2000   2666   20595360
#> 3 Brazil       1999  37737  172006362
#> 4 Brazil       2000  80488  174504898
#> 5 China        1999 212258 1272915272
#> 6 China        2000 213766 1280428583
In `table1`, each row represents a (country, year) combination, The columns `cases` and `population` contain the values for those variables

table2
#> # A tibble: 12 × 4
#>   country      year type           count
#>   <chr>       <int> <chr>          <int>
#> 1 Afghanistan  1999 cases            745
#> 2 Afghanistan  1999 population  19987071
#> 3 Afghanistan  2000 cases           2666
#> 4 Afghanistan  2000 population  20595360
#> 5 Brazil       1999 cases          37737
#> 6 Brazil       1999 population 172006362
#> # ... with 6 more rows
…
To fix these we will **pivot** our data (i.e. move it around) into tidy form using two functions in `tidyr: pivot_longer()` to lengthen data and `pivot_wider()` to widen data. Let’s explore these functions a bit further.

##4.5.1 Lengthening datasets
We’ll start with pivoting our data frame longer because this is the most common tidying issue you will likely face within a given dataset. `pivot_longer()` makes datasets “longer” by increasing the number of rows and decreasing the number of columns, solving those common problems of data values in the variable name (e.g wk1, wk2, wk3, etc.).

Let’s visualize this in the image below. The table on the right (`table4`) needs to be wrangled into ‘long’ format (represented by the table on the left) in order to satisfy the 3 rules of tidy data (section **4.4**). The issue here is that we want to group our data by year, or use it as a factor, and ggplot2 and most statistical packages cannot do this with **data** in columns. Only variables should be in columns. Therefore, including the variable we want to group by (year in the below) we pass the variable name to any grouping function, like `facet_wrap()`.

Using `pivot_longer()` splits the dataset by column, and reformats it into the tidy format of observations as rows, columns as variables and values as cell entries. The dataset is now longer (more rows, at left) than the ‘wide format’ data on the right. 

Let’s see this in action by using `pivot_longer()` in an example given by R4DS:
The billboard dataset records the billboard rank of songs in the year 2000. 

```{r}
billboard
#> # A tibble: 317 × 79
#>   artist       track               date.entered   wk1   wk2   wk3   wk4   wk5
#>   <chr>        <chr>               <date>       <dbl> <dbl> <dbl> <dbl> <dbl>
#> 1 2 Pac        Baby Don't Cry (Ke... 2000-02-26      87    82    72    77    87
#> 2 2Ge+her      The Hardest Part O... 2000-09-02      91    87    92    NA    NA
#> 3 3 Doors Down Kryptonite          2000-04-08      81    70    68    67    66
#> 4 3 Doors Down Loser               2000-10-21      76    76    72    69    67
#> 5 504 Boyz     Wobble Wobble       2000-04-15      57    34    25    17    17
#> 6 98^0         Give Me Just One N... 2000-08-19      51    39    34    26    26
#> # ℹ 311 more rows
#> # ℹ 71 more variables: wk6 <dbl>, wk7 <dbl>, wk8 <dbl>, wk9 <dbl>, ...
```
…
Note that in the code `"week"` and `"rank"` are quoted because they are new variables that we are creating, they don’t exist yet in the data when we run the `pivot_longer()` call.

Notice the NA values in the output above? It looks like “Baby Don’t Cry” by 2 Pac was only in the top 100 for 7 out of 76 weeks. Therefore, when we lengthened the data, the weeks where it wasn't on the charts became ‘NA.’ These NA’s were forced to exist because of the structure of the dataset not because they are actually unknown. Therefore, we can simply ask `pivot_longer` to remove them by adding the argument `values_drop_na = TRUE` as shown below:
```{r}
billboard |> 
  pivot_longer(
    cols = starts_with("wk"), 
    names_to = "week", 
    values_to = "rank",
    values_drop_na = TRUE
  )
#> # A tibble: 5,307 × 5
#>   artist track                   date.entered week   rank
#>   <chr>  <chr>                   <date>       <chr> <dbl>
#> 1 2 Pac  Baby Don't Cry (Keep... 2000-02-26   wk1      87
#> 2 2 Pac  Baby Don't Cry (Keep... 2000-02-26   wk2      82
#> 3 2 Pac  Baby Don't Cry (Keep... 2000-02-26   wk3      72
#> 4 2 Pac  Baby Don't Cry (Keep... 2000-02-26   wk4      77
#> 5 2 Pac  Baby Don't Cry (Keep... 2000-02-26   wk5      87
#> 6 2 Pac  Baby Don't Cry (Keep... 2000-02-26   wk6      94
#> # ℹ 5,301 more rows
```
…
##4.5.3 Widening datasets
In less common cases, we may need to widen a dataset rather than lengthen it. Widening is essentially the opposite of lengthening and we do so by using the function `pivot_wider()`. `pivot_wider()` allows us to handle an observation if it is scattered across multiple rows. Let’s visualize this in the image below:

In `table2` we see an observation is a country in a year with the observation spread across two rows (cases or population and their values). In this case, the table on the left needs to be made wider (like the table on the right) to move the value of cases into one column, and those of population into another column to comply with the 3 rules of tidy data (section **4.4**).

We’ll use an example from R4DS to explore **pivot_wider()** looking at **the `cms_patient_experience` dataset from the Centers of Medicare and Medicaid.
```{r}
cms_patient_experience
#> # A tibble: 500 × 5
#>   org_pac_id org_nm                     measure_cd   measure_title   prf_rate
#>   <chr>      <chr>                      <chr>        <chr>              <dbl>
#> 1 0446157747 USC CARE MEDICAL GROUP INC CAHPS_GRP_1  CAHPS for MIPS...       63
#> 2 0446157747 USC CARE MEDICAL GROUP INC CAHPS_GRP_2  CAHPS for MIPS...       87
#> 3 0446157747 USC CARE MEDICAL GROUP INC CAHPS_GRP_3  CAHPS for MIPS...       86
#> 4 0446157747 USC CARE MEDICAL GROUP INC CAHPS_GRP_5  CAHPS for MIPS...       57
#> 5 0446157747 USC CARE MEDICAL GROUP INC CAHPS_GRP_8  CAHPS for MIPS...       85
#> 6 0446157747 USC CARE MEDICAL GROUP INC CAHPS_GRP_12 CAHPS for MIPS...       24
#> # ℹ 494 more rows
```
…
`pivot_wider()` has the opposite interface to `pivot_longer()`: instead of choosing new column names, we need to provide the existing columns that define the values (`values_from`) and the column name (`names_from`):
```{r}
cms_patient_experience |> 
  pivot_wider(
    names_from = measure_cd,
    values_from = prf_rate
  )
#> # A tibble: 500 × 9
#>   org_pac_id org_nm                   measure_title   CAHPS_GRP_1 CAHPS_GRP_2
#>   <chr>      <chr>                    <chr>                 <dbl>       <dbl>
#> 1 0446157747 USC CARE MEDICAL GROUP ... CAHPS for MIPS...          63          NA
#> 2 0446157747 USC CARE MEDICAL GROUP ... CAHPS for MIPS...          NA          87
#> 3 0446157747 USC CARE MEDICAL GROUP ... CAHPS for MIPS...          NA          NA
#> 4 0446157747 USC CARE MEDICAL GROUP ... CAHPS for MIPS...          NA          NA
#> 5 0446157747 USC CARE MEDICAL GROUP ... CAHPS for MIPS...          NA          NA
#> 6 0446157747 USC CARE MEDICAL GROUP ... CAHPS for MIPS...          NA          NA
#> # ℹ 494 more rows
#> # ℹ 4 more variables: CAHPS_GRP_3 <dbl>, CAHPS_GRP_5 <dbl>, ...
```
…
