…
To find the most appropriate projected crs for your data, try the R package crs suggest.

#5.10 Feature collection (points)
Let’s now look at what we created with sdat. 
```{r}
sdat
```
**Output:**
Simple feature collection with 5313 features and 9 fields
Geometry type: POINT
Dimension:     XY
Bounding box:  xmin: 89.6107 ymin: -65.2428 xmax: 174.335 ymax: -16.80253
Geodetic CRS:  WGS 84
# A tibble: 5,313 × 10
   silk_id segment_no sample_time_utc  project route vessel      meanlong region
 *   <dbl>      <dbl> <chr>            <chr>   <chr> <chr>          <dbl> <chr> 
 1       1          1 26/06/2009 22:08 AusCPR  BRSY  ANL Windar...     153. East  
 2       1          5 26/06/2009 23:12 AusCPR  BRSY  ANL Windar...     153. East  
 3       1          9 27/06/2009 0:17  AusCPR  BRSY  ANL Windar...     153. East  
 4       1         13 27/06/2009 1:22  AusCPR  BRSY  ANL Windar...     153. East  
 5       1         17 27/06/2009 2:26  AusCPR  BRSY  ANL Windar...     153. East  
 6       1         18 27/06/2009 2:43  AusCPR  BRSY  ANL Windar...     153. East  
 7       1         26 27/06/2009 4:52  AusCPR  BRSY  ANL Windar...     153. East  
 8       1         30 27/06/2009 5:57  AusCPR  BRSY  ANL Windar...     153. East  
 9       1         33 27/06/2009 6:45  AusCPR  BRSY  ANL Windar...     153. East  
10       1         37 27/06/2009 7:50  AusCPR  BRSY  ANL Windar...     153. East  
# ... with 5,303 more rows, and 2 more variables: richness_raw <dbl>,
#   geometry <POINT [°]>
…
Appendix A: Tibbles
As we’ve already said, tibbles are not the same as R’s built-in data frame (which we will carefully distinguish by calling them a  data.frame) but just think of them like that - the best, most current way of representing tabular data to R. 
Take your time to read a little more: vignette("tibble"). 
Remember vignettes come with every package and are a fountain of information, written in a way that is much easier to digest than the classic help documentation that comes with a package. 
The tibble package is part of the core tidyverse package, which you should already have installed from the previous workshop. To use tibbles, we need to call in ‘tidyverse’ to our new script.
library(tidyverse)

Tibbles are a unifying feature of the tidyverse so you will want to know how to create them when working in the tidyverse. 
To convert regular data frames into tibbles you can use as_tibble():
iris # look at iris
str(iris) # check it out - what type is it? How many rows?

as_tibble(iris)
#> # A tibble: 150 × 5
#>   Sepal.Length Sepal.Width Petal.Length Petal.Width Species
#>          <dbl>       <dbl>        <dbl>       <dbl> <fct>  
#> 1          5.1         3.5          1.4         0.2 setosa 
#> 2          5.9         3            1.4         0.2 setosa 
#> 3          5.7         3.2          1.3         0.2 setosa 
#> 4          5.6         3.1          1.5         0.2 setosa 
#> 5          5           3.6          1.4         0.2 setosa 
#> 6          5.4         3.9          1.7         0.4 setosa 
#> # ... with 144 more rows
…
No doubt you previously used View() or the R studio buttons frequently to look at your data frame in R. But what happens if you run all of your script at once? Or you want to rerun your script many times (like a simulation), or perhaps use knitr to write a report. View() doesn’t handle that well, so it’s better to ‘look’ at your data in the console itself. Tibble makes this way easier.
Tibbles also print the type of each column variable next to its name (i.e. if it's a character, string, numeric etc.). This makes it easier for you to understand your data format - a key skill of being an effective programmer and very helpful for debugging.
Tibbles also help your console from getting overwhelmed by printing massive data frames. So way better than using View() or printing a whole dataframe, or even using a workaround method such as using a function on your data frame that prints only the first few rows: head(10).
Let’s have a look - notice this tibble is telling us we have a  data-time column (dttm), a date column, an integer, a double and a character. All without having to call an extra function to look at it. Read this if you want to know more: 18 Dates and times 
tibble(
  a = lubridate::now() + runif(1e3) * 86400,
  b = lubridate::today() + runif(1e3) * 30,
  c = 1:1e3,
  d = runif(1e3),
  e = sample(letters, 1e3, replace = TRUE)
)
#> # A tibble: 1,000 × 5
#>   a                   b              c     d e    
#>   <dttm>              <date>     <int> <dbl> <chr>
#> 1 2022-11-18 23:15:18 2022-11-25     1 0.368 n    
#> 2 2022-11-19 17:20:28 2022-11-30     2 0.612 l    
#> 3 2022-11-19 11:44:07 2022-12-10     3 0.415 p    
#> 4 2022-11-19 01:05:24 2022-12-09     4 0.212 m    
#> 5 2022-11-18 21:29:41 2022-12-06     5 0.733 i    
#> 6 2022-11-19 08:30:38 2022-12-02     6 0.460 n    
#> # ... with 994 more rows
